{
  "opts": [
    {
      "name": "DislikeButton",
      "filters": {
        "show_all": "# Dislike - show icon and text\n",
        "show_none": "# Dislike - hide icon and text\nwww.youtube.com###dislike-button-view-model\n"
      }
    },
    {
      "name": "ShareButton",
      "filters": {
        "show_all": "# Share - show icon and text\n",
        "show_btn": "# Share - show icon, hide text\nwww.youtube.com##div.yt-spec-button-shape-next__button-text-content:has-text(/Share/)\n",
        "show_none": "# Share - hide icon and text\nwww.youtube.com##yt-button-view-model:has(button-view-model>button[title=\"Share\"])\n"
      }
    },
    {
      "name": "DownloadButton",
      "filters": {
        "show_all": "# Download - show icon and text\n",
        "show_btn": "# Download - show icon, hide text\nwww.youtube.com##div.yt-spec-button-shape-next__button-text-content:has(span:has-text(/Download/))\n",
        "show_none": "# Download - hide icon and text\nwww.youtube.com##ytd-download-button-renderer\n"
      }
    },
    {
      "name": "ThanksButton",
      "filters": {
        "show_all": "# Thanks - show icon and text\n",
        "show_btn": "# Thanks - show icon, hide text\nwww.youtube.com##div.yt-spec-button-shape-next__button-text-content:has-text(/Thanks/)\n",
        "show_none": "# Thanks - hide icon and text\nwww.youtube.com##yt-button-view-model:has(button-view-model>button[aria-label=\"Thanks\"])\n"
      }
    },
    {
      "name": "ClipButton",
      "filters": {
        "show_all": "# Clip - show icon and text\n",
        "show_btn": "# Clip - show icon, hide text\nwww.youtube.com##div.yt-spec-button-shape-next__button-text-content:has-text(/Clip/)\n",
        "show_none": "# Clip - hide icon and text\nwww.youtube.com##yt-button-view-model:has(button-view-model>button[aria-label=\"Clip\"])\n"
      }
    },
    {
      "name": "SaveButton",
      "filters": {
        "show_all": "# Save (to Playlist) - show icon and text\n",
        "show_btn": "# Save (to Playlist) - show icon, hide text\nwww.youtube.com##div.yt-spec-button-shape-next__button-text-content:has-text(/Save/)\n",
        "show_none": "# Save (to Playlist) - hide icon and text\nwww.youtube.com##yt-button-view-model:has(button-view-model>button[title=\"Save\"])\n"
      }
    },
    {
      "name": "SubscribeButton",
      "filters": {
        "show_all": "# Subscribe - show icon and text\n",
        "show_none": "# Subscribe - hide icon and text\nwww.youtube.com##div#subscribe-button\n"
      }
    },
    {
      "name": "JoinButton",
      "filters": {
        "show_all": "# Join Channel - show icon and text\n",
        "show_none": "# Join Channel - hide icon and text\nwww.youtube.com##div#sponsor-button\n"
      }
    }
  ]
}